EDA
…
Start grouping

tibble still the same one extra line like:# Groups: name, month [36]/ # Groups: month [12]/ # Groups: name [3] layer sub-dataset

remove groups using ungroup()

weather_df %>% 
  group_by(month)

## # A tibble: 1,095 x 7
## # Groups:   month [12]
##    name           id          date       month       prcp  tmax  tmin
##    <chr>          <chr>       <date>     <date>     <dbl> <dbl> <dbl>
##  1 CentralPark_NY USW00094728 2017-01-01 2017-01-01     0   8.9   4.4
##  2 CentralPark_NY USW00094728 2017-01-02 2017-01-01    53   5     2.8
##  3 CentralPark_NY USW00094728 2017-01-03 2017-01-01   147   6.1   3.9
##  4 CentralPark_NY USW00094728 2017-01-04 2017-01-01     0  11.1   1.1
##  5 CentralPark_NY USW00094728 2017-01-05 2017-01-01     0   1.1  -2.7
##  6 CentralPark_NY USW00094728 2017-01-06 2017-01-01    13   0.6  -3.8
##  7 CentralPark_NY USW00094728 2017-01-07 2017-01-01    81  -3.2  -6.6
##  8 CentralPark_NY USW00094728 2017-01-08 2017-01-01     0  -3.8  -8.8
##  9 CentralPark_NY USW00094728 2017-01-09 2017-01-01     0  -4.9  -9.9
## 10 CentralPark_NY USW00094728 2017-01-10 2017-01-01     0   7.8  -6  
## # ... with 1,085 more rows

weather_df %>% 
  group_by(name)

## # A tibble: 1,095 x 7
## # Groups:   name [3]
##    name           id          date       month       prcp  tmax  tmin
##    <chr>          <chr>       <date>     <date>     <dbl> <dbl> <dbl>
##  1 CentralPark_NY USW00094728 2017-01-01 2017-01-01     0   8.9   4.4
##  2 CentralPark_NY USW00094728 2017-01-02 2017-01-01    53   5     2.8
##  3 CentralPark_NY USW00094728 2017-01-03 2017-01-01   147   6.1   3.9
##  4 CentralPark_NY USW00094728 2017-01-04 2017-01-01     0  11.1   1.1
##  5 CentralPark_NY USW00094728 2017-01-05 2017-01-01     0   1.1  -2.7
##  6 CentralPark_NY USW00094728 2017-01-06 2017-01-01    13   0.6  -3.8
##  7 CentralPark_NY USW00094728 2017-01-07 2017-01-01    81  -3.2  -6.6
##  8 CentralPark_NY USW00094728 2017-01-08 2017-01-01     0  -3.8  -8.8
##  9 CentralPark_NY USW00094728 2017-01-09 2017-01-01     0  -4.9  -9.9
## 10 CentralPark_NY USW00094728 2017-01-10 2017-01-01     0   7.8  -6  
## # ... with 1,085 more rows

weather_df %>% 
  group_by(name, month)

## # A tibble: 1,095 x 7
## # Groups:   name, month [36]
##    name           id          date       month       prcp  tmax  tmin
##    <chr>          <chr>       <date>     <date>     <dbl> <dbl> <dbl>
##  1 CentralPark_NY USW00094728 2017-01-01 2017-01-01     0   8.9   4.4
##  2 CentralPark_NY USW00094728 2017-01-02 2017-01-01    53   5     2.8
##  3 CentralPark_NY USW00094728 2017-01-03 2017-01-01   147   6.1   3.9
##  4 CentralPark_NY USW00094728 2017-01-04 2017-01-01     0  11.1   1.1
##  5 CentralPark_NY USW00094728 2017-01-05 2017-01-01     0   1.1  -2.7
##  6 CentralPark_NY USW00094728 2017-01-06 2017-01-01    13   0.6  -3.8
##  7 CentralPark_NY USW00094728 2017-01-07 2017-01-01    81  -3.2  -6.6
##  8 CentralPark_NY USW00094728 2017-01-08 2017-01-01     0  -3.8  -8.8
##  9 CentralPark_NY USW00094728 2017-01-09 2017-01-01     0  -4.9  -9.9
## 10 CentralPark_NY USW00094728 2017-01-10 2017-01-01     0   7.8  -6  
## # ... with 1,085 more rows

n() means the number of elements

weather_df %>% 
  group_by(name, month) %>% 
  summarize(number = n())

## # A tibble: 36 x 3
## # Groups:   name [?]
##    name           month      number
##    <chr>          <date>      <int>
##  1 CentralPark_NY 2017-01-01     31
##  2 CentralPark_NY 2017-02-01     28
##  3 CentralPark_NY 2017-03-01     31
##  4 CentralPark_NY 2017-04-01     30
##  5 CentralPark_NY 2017-05-01     31
##  6 CentralPark_NY 2017-06-01     30
##  7 CentralPark_NY 2017-07-01     31
##  8 CentralPark_NY 2017-08-01     31
##  9 CentralPark_NY 2017-09-01     30
## 10 CentralPark_NY 2017-10-01     31
## # ... with 26 more rows
…
counthandyuse count() in place of group_by() and summarize()

weather_df %>%
  count(name, month)

## # A tibble: 36 x 3
##    name           month          n
##    <chr>          <date>     <int>
##  1 CentralPark_NY 2017-01-01    31
##  2 CentralPark_NY 2017-02-01    28
##  3 CentralPark_NY 2017-03-01    31
##  4 CentralPark_NY 2017-04-01    30
##  5 CentralPark_NY 2017-05-01    31
##  6 CentralPark_NY 2017-06-01    30
##  7 CentralPark_NY 2017-07-01    31
##  8 CentralPark_NY 2017-08-01    31
##  9 CentralPark_NY 2017-09-01    30
## 10 CentralPark_NY 2017-10-01    31
## # ... with 26 more rows
…
Grouped summaries

weather_df %>% 
  group_by(name, month) %>% 
  summarize(number = n(),
            num_na = sum(is.na(tmax)),
            mean_tmax = mean(tmax))

## # A tibble: 36 x 5
## # Groups:   name [?]
##    name           month      number num_na mean_tmax
##    <chr>          <date>      <int>  <int>     <dbl>
##  1 CentralPark_NY 2017-01-01     31      0      5.98
##  2 CentralPark_NY 2017-02-01     28      0      9.28
##  3 CentralPark_NY 2017-03-01     31      0      8.22
##  4 CentralPark_NY 2017-04-01     30      0     18.3 
##  5 CentralPark_NY 2017-05-01     31      0     20.1 
##  6 CentralPark_NY 2017-06-01     30      0     26.3 
##  7 CentralPark_NY 2017-07-01     31      0     28.7 
##  8 CentralPark_NY 2017-08-01     31      0     27.2 
##  9 CentralPark_NY 2017-09-01     30      0     25.4 
## 10 CentralPark_NY 2017-10-01     31      0     21.8 
## # ... with 26 more rows

different from mutate-repeat the number to fill in the new column

weather_df %>% 
  group_by(name, month) %>% 
  summarize(number = n(),
            mean_tmax = mean(tmax, na.rm = TRUE))

## # A tibble: 36 x 4
## # Groups:   name [?]
##    name           month      number mean_tmax
##    <chr>          <date>      <int>     <dbl>
##  1 CentralPark_NY 2017-01-01     31      5.98
##  2 CentralPark_NY 2017-02-01     28      9.28
##  3 CentralPark_NY 2017-03-01     31      8.22
##  4 CentralPark_NY 2017-04-01     30     18.3 
##  5 CentralPark_NY 2017-05-01     31     20.1 
##  6 CentralPark_NY 2017-06-01     30     26.3 
##  7 CentralPark_NY 2017-07-01     31     28.7 
##  8 CentralPark_NY 2017-08-01     31     27.2 
##  9 CentralPark_NY 2017-09-01     30     25.4 
## 10 CentralPark_NY 2017-10-01     31     21.8 
## # ... with 26 more rows

#na.rm = TRUE--remove mising value--default set to FALSE

weather_df %>% 
  group_by(name, month) %>% 
  summarize(number = n(),
            mean_tmax = mean(tmax, na.rm = TRUE),
            mean_prec = mean(prcp, na.rm = TRUE),
            median_tmax = median(tmax, na.rm = TRUE),
            sd_tmin = sd(tmin, na.rm = TRUE))

## # A tibble: 36 x 7
## # Groups:   name [?]
##    name           month      number mean_tmax mean_prec median_tmax sd_tmin
##    <chr>          <date>      <int>     <dbl>     <dbl>       <dbl>   <dbl>
##  1 CentralPark_NY 2017-01-01     31      5.98      39.5         6.1    4.47
##  2 CentralPark_NY 2017-02-01     28      9.28      22.5         8.3    5.05
##  3 CentralPark_NY 2017-03-01     31      8.22      43.0         8.3    5.78
##  4 CentralPark_NY 2017-04-01     30     18.3       32.5        18.3    3.82
##  5 CentralPark_NY 2017-05-01     31     20.1       52.3        19.4    3.75
##  6 CentralPark_NY 2017-06-01     30     26.3       40.4        27.2    4.23
##  7 CentralPark_NY 2017-07-01     31     28.7       34.3        29.4    2.32
##  8 CentralPark_NY 2017-08-01     31     27.2       27.4        27.2    2.06
##  9 CentralPark_NY 2017-09-01     30     25.4       17.0        26.1    3.42
## 10 CentralPark_NY 2017-10-01     31     21.8       34.3        22.2    4.42
## # ... with 26 more rows
…
Grouped mutate

weather_df %>%
  group_by(name, month) %>%
  mutate(mean_tmax = mean(tmax, na.rm = TRUE))

## # A tibble: 1,095 x 8
## # Groups:   name, month [36]
##    name        id        date       month       prcp  tmax  tmin mean_tmax
##    <chr>       <chr>     <date>     <date>     <dbl> <dbl> <dbl>     <dbl>
##  1 CentralPar USW00094 2017-01-01 2017-01-01     0   8.9   4.4      5.98
##  2 CentralPar USW00094 2017-01-02 2017-01-01    53   5     2.8      5.98
##  3 CentralPar USW00094 2017-01-03 2017-01-01   147   6.1   3.9      5.98
##  4 CentralPar USW00094 2017-01-04 2017-01-01     0  11.1   1.1      5.98
##  5 CentralPar USW00094 2017-01-05 2017-01-01     0   1.1  -2.7      5.98
##  6 CentralPar USW00094 2017-01-06 2017-01-01    13   0.6  -3.8      5.98
##  7 CentralPar USW00094 2017-01-07 2017-01-01    81  -3.2  -6.6      5.98
##  8 CentralPar USW00094 2017-01-08 2017-01-01     0  -3.8  -8.8      5.98
##  9 CentralPar USW00094 2017-01-09 2017-01-01     0  -4.9  -9.9      5.98
## 10 CentralPar USW00094 2017-01-10 2017-01-01     0   7.8  -6        5.98
## # ... with 1,085 more rows
…
Window functions

Use ranks

Coldest day in every place

weather_df %>%
  group_by(name, month) %>%
  mutate(tmax_ranking = min_rank(tmax)) %>% 
  filter(tmax_ranking < 2)

## # A tibble: 42 x 8
## # Groups:   name, month [36]
##    name       id      date       month       prcp  tmax  tmin tmax_ranking
##    <chr>      <chr>   <date>     <date>     <dbl> <dbl> <dbl>        <int>
##  1 CentralPa USW000 2017-01-09 2017-01-01     0  -4.9  -9.9            1
##  2 CentralPa USW000 2017-02-10 2017-02-01     0   0    -7.1            1
##  3 CentralPa USW000 2017-03-15 2017-03-01     0  -3.2  -6.6            1
##  4 CentralPa USW000 2017-04-01 2017-04-01     0   8.9   2.8            1
##  5 CentralPa USW000 2017-05-13 2017-05-01   409  11.7   7.2            1
##  6 CentralPa USW000 2017-06-06 2017-06-01    15  14.4  11.1            1
##  7 CentralPa USW000 2017-07-25 2017-07-01     0  21.7  16.7            1
##  8 CentralPa USW000 2017-08-29 2017-08-01    74  20    16.1            1
##  9 CentralPa USW000 2017-09-30 2017-09-01     0  18.9  12.2            1
## 10 CentralPa USW000 2017-10-31 2017-10-01     0  13.9   7.2            1
## # ... with 32 more rows

Keep the three days with the highest max temperature

weather_df %>%
  group_by(name, month) %>%
  filter(min_rank(desc(tmax)) < 4)

## # A tibble: 149 x 7
## # Groups:   name, month [36]
##    name           id          date       month       prcp  tmax  tmin
##    <chr>          <chr>       <date>     <date>     <dbl> <dbl> <dbl>
##  1 CentralPark_NY USW00094728 2017-01-12 2017-01-01    13  18.9   8.3
##  2 CentralPark_NY USW00094728 2017-01-13 2017-01-01     0  16.7   0  
##  3 CentralPark_NY USW00094728 2017-01-26 2017-01-01     5  13.3   6.1
##  4 CentralPark_NY USW00094728 2017-02-19 2017-02-01     0  18.3  11.7
##  5 CentralPark_NY USW00094728 2017-02-23 2017-02-01     0  18.3   6.7
##  6 CentralPark_NY USW00094728 2017-02-24 2017-02-01     0  21.1  14.4
##  7 CentralPark_NY USW00094728 2017-03-01 2017-03-01    30  21.1  12.2
##  8 CentralPark_NY USW00094728 2017-03-02 2017-03-01     0  17.8   1.7
##  9 CentralPark_NY USW00094728 2017-03-25 2017-03-01     3  16.7   5.6
## 10 CentralPark_NY USW00094728 2017-04-16 2017-04-01     0  30.6  15  
## # ... with 139 more rows

Use lagsoffsetused to compare an observation to its previous value

weather_df %>%
  group_by(name) %>%
  mutate(lag = lag(tmax))

## # A tibble: 1,095 x 8
## # Groups:   name [3]
##    name           id          date       month       prcp  tmax  tmin   lag
##    <chr>          <chr>       <date>     <date>     <dbl> <dbl> <dbl> <dbl>
##  1 CentralPark_NY USW00094728 2017-01-01 2017-01-01     0   8.9   4.4  NA  
##  2 CentralPark_NY USW00094728 2017-01-02 2017-01-01    53   5     2.8   8.9
##  3 CentralPark_NY USW00094728 2017-01-03 2017-01-01   147   6.1   3.9   5  
##  4 CentralPark_NY USW00094728 2017-01-04 2017-01-01     0  11.1   1.1   6.1
##  5 CentralPark_NY USW00094728 2017-01-05 2017-01-01     0   1.1  -2.7  11.1
##  6 CentralPark_NY USW00094728 2017-01-06 2017-01-01    13   0.6  -3.8   1.1
##  7 CentralPark_NY USW00094728 2017-01-07 2017-01-01    81  -3.2  -6.6   0.6
##  8 CentralPark_NY USW00094728 2017-01-08 2017-01-01     0  -3.8  -8.8  -3.2
##  9 CentralPark_NY USW00094728 2017-01-09 2017-01-01     0  -4.9  -9.9  -3.8
## 10 CentralPark_NY USW00094728 2017-01-10 2017-01-01     0   7.8  -6    -4.9
## # ... with 1,085 more rows
…
